Real data analysis III: analyzing EHR data using R - STAT 818: Introduction to R
…
d1 %>%
  group_by(date) %>%
  summarise(confirmed = sum(cases))
  
# A tibble: 70 × 2
   date       confirmed
   <date>         <dbl>
 1 2020-01-22       557
 2 2020-01-23       657
 3 2020-01-24       944
 4 2020-01-25      1437
 5 2020-01-26      2120
 6 2020-01-27      2929
 7 2020-01-28      5580
 8 2020-01-29      6169
 9 2020-01-30      8237
10 2020-01-31      9927
# ℹ 60 more rows
# ℹ Use `print(n = ...)` to see more rows
…
The vertical axis is the cumulative number of cases.

First, some data management, for example, find day 0 – the day that the first 100 cases showed up – for each country.

d2a <- d1 %>%
  group_by(country_region) %>%
  filter(cases >= 100) %>%
  mutate(days_since_100 = 0:(n() - 1)) %>%
  # same as
  # mutate(edate = as.numeric(date - min(date)))
  ungroup()
d2a

# A tibble: 1,639 × 4
   country_region date       cases days_since_100
   <chr>          <date>     <dbl>          <int>
 1 Afghanistan    2020-03-28  106               0
 2 Afghanistan    2020-03-29  114               1
 3 Afghanistan    2020-03-30  114               2
 4 Afghanistan    NA          102.              3
 5 Albania        2020-03-23  104               0
 6 Albania        2020-03-24  123               1
 7 Albania        2020-03-25  146               2
 8 Albania        2020-03-26  174               3
 9 Albania        2020-03-27  186               4
10 Albania        2020-03-28  197               5
# ℹ 1,629 more rows
# ℹ Use `print(n = ...)` to see more rows

d2a <- d2a[-which(is.na(d2a[,2])),]
d2a

# A tibble: 1,601 × 4
   country_region date       cases days_since_100
   <chr>          <date>     <dbl>          <int>
 1 Afghanistan    2020-03-28   106              0
 2 Afghanistan    2020-03-29   114              1
 3 Afghanistan    2020-03-30   114              2
 4 Albania        2020-03-23   104              0
 5 Albania        2020-03-24   123              1
 6 Albania        2020-03-25   146              2
 7 Albania        2020-03-26   174              3
 8 Albania        2020-03-27   186              4
 9 Albania        2020-03-28   197              5
10 Albania        2020-03-29   212              6
# ℹ 1,591 more rows
# ℹ Use `print(n = ...)` to see more rows
…
Trajectory plot for each country

Next, we plot out the longitudinal profiles for every country.

d2 %>%
  group_by(country_region) %>%
  filter(max(cases) >= 1000) %>%
  ungroup()

# A tibble: 676 × 4
   country_region date       cases days_since_100
   <chr>          <date>     <dbl>          <dbl>
 1 Austria        2020-03-10   126              0
 2 Austria        2020-03-11   148              1
 3 Austria        2020-03-12   203              2
 4 Austria        2020-03-13   312              3
 5 Austria        2020-03-14   409              4
 6 Austria        2020-03-15   591              5
 7 Austria        2020-03-16   801              6
 8 Austria        2020-03-17   999              7
 9 Austria        2020-03-18  1225              8
10 Austria        2020-03-19  1571              9
# ℹ 666 more rows
# ℹ Use `print(n = ...)` to see more rows

d2 %>%
  group_by(country_region) %>%
  filter(max(cases) >= 1000) %>%
  ungroup() %>%
  ggplot(aes(days_since_100, cases)) +
  geom_line(size = 0.8) +
  geom_line(
    data = d2 %>% rename(country = country_region)d2 %>%
  group_by(country_region) %>%
  filter(max(cases) >= 1000) %>%
  ungroup()

# A tibble: 676 × 4
   country_region date       cases days_since_100
   <chr>          <date>     <dbl>          <dbl>
 1 Austria        2020-03-10   126              0
 2 Austria        2020-03-11   148              1
 3 Austria        2020-03-12   203              2
 4 Austria        2020-03-13   312              3
 5 Austria        2020-03-14   409              4
 6 Austria        2020-03-15   591              5
 7 Austria        2020-03-16   801              6
 8 Austria        2020-03-17   999              7
 9 Austria        2020-03-18  1225              8
10 Austria        2020-03-19  1571              9
# ℹ 666 more rows
# ℹ Use `print(n = ...)` to see more rows
…
Worldmap

Next, we plot out a world map with incidence numbers for all countries.

library(countrycode)
# countrycode('Albania', 'country.name', 'iso3c')

d_newest <- d %>%
  select(Long, Lat, last_col()) %>%
  set_names("Long", "Lat", "newest_date")
d_newest

# A tibble: 289 × 3
     Long   Lat newest_date
    <dbl> <dbl>       <dbl>
 1  67.7   33.9         114
 2  20.2   41.2         223
 3   1.66  28.0         584
 4   1.52  42.5         370
 5  17.9  -11.2           7
 6  23.3  -71.9           0
 7 -61.8   17.1           7
 8 -63.6  -38.4         820
 9  45.0   40.1         482
10 149.   -35.5          78
# ℹ 279 more rows
# ℹ Use `print(n = ...)` to see more rows
…
d2a <- d1 %>%
  group_by(country_region) %>%
  filter(cases >= 100) %>%
  mutate(days_since_100 = 0:(n() - 1)) %>%
  # same as
  # mutate(edate = as.numeric(date - min(date)))
  ungroup()
d2a
# A tibble: 83,520 × 4
   country_region date       cases days_since_100
   <chr>          <date>     <dbl>          <int>
 1 Afghanistan    2020-05-07   104              0
 2 Afghanistan    2020-05-08   105              1
 3 Afghanistan    2020-05-09   105              2
 4 Afghanistan    2020-05-10   119              3
 5 Afghanistan    2020-05-11   120              4
 6 Afghanistan    2020-05-12   127              5
 7 Afghanistan    2020-05-13   127              6
 8 Afghanistan    2020-05-14   136              7
 9 Afghanistan    2020-05-15   153              8
10 Afghanistan    2020-05-16   168              9
# ℹ 83,510 more rows
# ℹ Use `print(n = ...)` to see more rows

d2a <- d2a[-which(is.na(d2a[,2])),]
d2a
# A tibble: 83,492 × 4
   country_region date       cases days_since_100
   <chr>          <date>     <dbl>          <int>
 1 Afghanistan    2020-05-07   104              0
 2 Afghanistan    2020-05-08   105              1
 3 Afghanistan    2020-05-09   105              2
 4 Afghanistan    2020-05-10   119              3
 5 Afghanistan    2020-05-11   120              4
 6 Afghanistan    2020-05-12   127              5
 7 Afghanistan    2020-05-13   127              6
 8 Afghanistan    2020-05-14   136              7
 9 Afghanistan    2020-05-15   153              8
10 Afghanistan    2020-05-16   168              9
# ℹ 83,482 more rows
# ℹ Use `print(n = ...)` to see more rows
…
Worldmap

library(countrycode)
# countrycode('Albania', 'country.name', 'iso3c')

d_newest <- d %>%
  select(Long, Lat, last_col()) %>%
  set_names("Long", "Lat", "newest_date")
d_newest
# A tibble: 289 × 3
     Long   Lat newest_date
    <dbl> <dbl>       <dbl>
 1  67.7   33.9        7356
 2  20.2   41.2        3217
 3   1.66  28.0        6276
 4   1.52  42.5         140
 5  17.9  -11.2        1770
 6  23.3  -71.9           0
 7 -61.8   17.1         119
 8 -63.6  -38.4      117169
 9  45.0   40.1        7972
10 149.   -35.5          15
# ℹ 279 more rows
# ℹ Use `print(n = ...)` to see more rows
…
